<?xml version="1.0" encoding="utf-8"?>
<!-- Generator: Adobe Illustrator 25.3.1, SVG Export Plug-In . SVG Version: 6.00 Build 0)  -->
<svg version="1.1" id="Layer_3" xmlns="http://www.w3.org/2000/svg" xmlns:xlink="http://www.w3.org/1999/xlink" x="0px" y="0px"
	 viewBox="0 0 512 512" style="enable-background:new 0 0 512 512;" xml:space="preserve">
<style type="text/css">
	.st0{fill:#00ACD8;}
</style>
<path class="st0" d="M304,40H48c-4.4,0-8,3.6-8,8v352c0,4.4,3.6,8,8,8h256c4.4,0,8-3.6,8-8V48C312,43.6,308.4,40,304,40z M296,56v48
	H56V56H296z M296,120v208H56V120H296z M56,392v-48h240v48H56z"/>
<path class="st0" d="M143,298.3c8.7,8.7,20.7,13.7,33,13.7s24.3-5,33-13.7c9.7-9.7,15-22.6,15-36.3v-2.8c0-8.7-2.2-17.3-6.5-24.9
	L183,172.1c-2.8-5.1-11.2-5.1-14,0l-34,61.2c-4.6,8.2-7,17.5-7,27v1.7C128,275.8,133.3,288.7,143,298.3L143,298.3z M144,260.3
	c0-6.7,1.7-13.3,5-19.2l27-48.7l27.6,49.6c2.9,5.2,4.4,11.2,4.4,17.2v2.8c0,9.4-3.7,18.3-10.3,25c-5.7,5.7-13.6,9-21.7,9
	s-16-3.3-21.7-9c-6.7-6.7-10.3-15.5-10.3-25V260.3z"/>
<path class="st0" d="M248,184h16v16h16v-56c0-4.4-3.6-8-8-8h-32c-4.4,0-8,3.6-8,8v56h16V184z M264,152v16h-16v-16H264z"/>
<path class="st0" d="M480,105.1V72h-16v33.1c-13.8,3.6-24,16-24,30.9v32c0,14.9,10.2,27.3,24,30.9V384c0,8.8-7.2,16-16,16
	s-16-7.2-16-16V232c0-17.6-14.4-32-32-32s-32,14.4-32,32v216c0,22.1-17.9,40-40,40H208c-10.4,0-19.2-6.7-22.5-16H240
	c4.4,0,8-3.6,8-8v-24h72c13.2,0,24-10.8,24-24V32c0-13.2-10.8-24-24-24H32C18.8,8,8,18.8,8,32v384c0,13.2,10.8,24,24,24h72v24
	c0,4.4,3.6,8,8,8h56.8c3.7,18.2,19.9,32,39.2,32h120c30.9,0,56-25.1,56-56V232c0-8.8,7.2-16,16-16s16,7.2,16,16v152
	c0,17.6,14.4,32,32,32s32-14.4,32-32V198.9c13.8-3.6,24-16,24-30.9v-32C504,121.1,493.8,108.7,480,105.1z M24,416V32
	c0-4.4,3.6-8,8-8h288c4.4,0,8,3.6,8,8v384c0,4.4-3.6,8-8,8H32C27.6,424,24,420.4,24,416z M120,440h112v16H120V440z M488,168
	c0,8.8-7.2,16-16,16s-16-7.2-16-16v-32c0-8.8,7.2-16,16-16s16,7.2,16,16V168z"/>
</svg>
