<?xml version="1.0" encoding="utf-8"?>
<!-- Generator: Adobe Illustrator 25.3.1, SVG Export Plug-In . SVG Version: 6.00 Build 0)  -->
<svg version="1.1" id="Layer_3" xmlns="http://www.w3.org/2000/svg" xmlns:xlink="http://www.w3.org/1999/xlink" x="0px" y="0px"
	 viewBox="0 0 512 512" style="enable-background:new 0 0 512 512;" xml:space="preserve">
<style type="text/css">
	.st0{fill:#00ACD8;}
</style>
<path class="st0" d="M424,152c-17.6,0-32,14.4-32,32v81.5c-9.4-2.7-20.2-0.7-27.3,6.5l-50.3,50.3c-1.5,1.5-2.3,3.5-2.3,5.7v96h-8
	c-4.4,0-8,3.6-8,8v64c0,4.4,3.6,8,8,8h112c4.4,0,8-3.6,8-8v-64c0-4.4-3.6-8-8-8h-8v-28.7l45.7-45.7c1.5-1.5,2.3-3.5,2.3-5.7V184
	C456,166.4,441.6,152,424,152z M408,488h-96v-48h96V488z M440,340.7l-45.7,45.7c-1.5,1.5-2.3,3.5-2.3,5.7v32h-64v-92.7l48-48
	c4.3-4.3,11.7-4.3,16,0l4.7,4.7c2.1,2.1,3.3,5,3.3,8s-1.2,5.9-3.3,8l-26.3,26.3l11.3,11.3l26.3-26.3c5.2-5.2,8-12,8-19.3
	s-2.8-14.2-8-19.3V184c0-8.8,7.2-16,16-16s16,7.2,16,16V340.7z"/>
<path class="st0" d="M360,215.1c0-32.3-9.1-63.9-26.4-91.2L262.8,11.7c-2.9-4.6-10.6-4.6-13.5,0l-70.8,112.2
	c-17.3,27.3-26.4,58.9-26.4,91.2c0,28.3,12.3,55.1,33.8,73.6c17.5,15,39.9,23.3,63,23.3h14.2c23.1,0,45.5-8.3,63-23.3
	C347.7,270.3,360,243.4,360,215.1z M315.8,276.5c-14.7,12.6-33.3,19.5-52.6,19.5h-14.2c-19.3,0-38-6.9-52.6-19.5
	c-18-15.4-28.2-37.8-28.2-61.4c0-29.3,8.3-57.9,23.9-82.7L256,31l64.1,101.5c15.7,24.8,23.9,53.4,23.9,82.7
	C344,238.8,333.7,261.1,315.8,276.5z"/>
<path class="st0" d="M304,184h-24v-24c0-4.4-3.6-8-8-8h-32c-4.4,0-8,3.6-8,8v24h-24c-4.4,0-8,3.6-8,8v32c0,4.4,3.6,8,8,8h24v24
	c0,4.4,3.6,8,8,8h32c4.4,0,8-3.6,8-8v-24h24c4.4,0,8-3.6,8-8v-32C312,187.6,308.4,184,304,184z M296,216h-24c-4.4,0-8,3.6-8,8v24
	h-16v-24c0-4.4-3.6-8-8-8h-24v-16h24c4.4,0,8-3.6,8-8v-24h16v24c0,4.4,3.6,8,8,8h24V216z"/>
<path class="st0" d="M208,424h-8v-96c0-2.1-0.8-4.2-2.3-5.7L147.3,272c-7.1-7.1-17.9-9.2-27.3-6.5V184c0-17.6-14.4-32-32-32
	s-32,14.4-32,32v160c0,2.1,0.8,4.2,2.3,5.7l45.7,45.7V424h-8c-4.4,0-8,3.6-8,8v64c0,4.4,3.6,8,8,8h112c4.4,0,8-3.6,8-8v-64
	C216,427.6,212.4,424,208,424L208,424z M117.7,386.3L72,340.7V184c0-8.8,7.2-16,16-16s16,7.2,16,16v92.7c-5.2,5.2-8,12-8,19.3
	s2.8,14.2,8,19.3l26.3,26.3l11.3-11.3L115.3,304c-2.1-2.1-3.3-5-3.3-8s1.2-5.9,3.3-8l4.7-4.7c4.3-4.3,11.7-4.3,16,0l48,48V424h-64
	v-32C120,389.9,119.2,387.8,117.7,386.3z M200,488h-96v-48h96V488z"/>
</svg>
