<?xml version="1.0" encoding="utf-8"?>
<!-- Generator: Adobe Illustrator 25.3.1, SVG Export Plug-In . SVG Version: 6.00 Build 0)  -->
<svg version="1.1" id="Layer_3" xmlns="http://www.w3.org/2000/svg" xmlns:xlink="http://www.w3.org/1999/xlink" x="0px" y="0px"
	 viewBox="0 0 512 512" style="enable-background:new 0 0 512 512;" xml:space="preserve">
<style type="text/css">
	.st0{fill:#00ACD8;}
</style>
<path class="st0" d="M496,8H288c-4.4,0-8,3.6-8,8v224c0,4.4,3.6,8,8,8h104v184c0,13.2-10.8,24-24,24s-24-10.8-24-24v-64
	c0-17.6-14.4-32-32-32s-32,14.4-32,32v32c0,8.8-7.2,16-16,16h-32v-64c0-4.4-3.6-8-8-8h-8v-68c0-0.9,0.3-1.7,0.8-2.4l2.4-3.2
	C248.1,231.9,264,184.1,264,136c0-17.6-14.4-32-32-32c-5.9,0-11.3,1.7-16,4.4V56c0-17.6-14.4-32-32-32c-6.6,0-12.8,2-17.9,5.5
	C161.7,17,150,8,136,8s-25.7,9-30.1,21.5C100.8,26,94.6,24,88,24c-17.6,0-32,14.4-32,32v4.4C51.3,57.7,45.9,56,40,56
	C22.4,56,8,70.4,8,88v44c0,50.7,16.8,101,47.2,141.6c0.5,0.7,0.8,1.6,0.8,2.4v68h-8c-4.4,0-8,3.6-8,8v24h-8c-4.4,0-8,3.6-8,8v80
	c0,4.4,3.6,8,8,8h8v24c0,4.4,3.6,8,8,8h176c4.4,0,8-3.6,8-8v-64h32c17.6,0,32-14.4,32-32v-32c0-8.8,7.2-16,16-16s16,7.2,16,16v64
	c0,22.1,17.9,40,40,40s40-17.9,40-40V248h88c4.4,0,8-3.6,8-8V16C504,11.6,500.4,8,496,8L496,8z M68,264c-28.4-37.8-44-84.7-44-132
	V88c0-8.8,7.2-16,16-16s16,7.2,16,16v72h16V56c0-8.8,7.2-16,16-16s16,7.2,16,16v104h16V40c0-8.8,7.2-16,16-16s16,7.2,16,16v120h16
	V56c0-8.8,7.2-16,16-16s16,7.2,16,16v80v32.6c-27.1,3.9-48,27.3-48,55.4v8h16v-8c0-22.1,17.9-40,40-40c4.4,0,8-3.6,8-8v-40
	c0-8.8,7.2-16,16-16s16,7.2,16,16c0,44.7-14.8,89-41.6,124.8L204,264c-2.6,3.4-4,7.7-4,12v68H72v-68C72,271.7,70.6,267.4,68,264z
	 M56,360h160v56h-16v-32c0-4.4-3.6-8-8-8H56V360z M88,392v64H72v-64H88z M104,392h16v64h-16V392z M136,392h16v64h-16V392z M168,392
	h16v64h-16V392z M40,392h16v64H40V392z M216,488H56v-16h136c4.4,0,8-3.6,8-8v-32h16V488z M488,24v144H296V24H488z M296,232v-48h192
	v48H296z"/>
<path class="st0" d="M320,152h144c4.4,0,8-3.6,8-8V48c0-4.4-3.6-8-8-8H320c-4.4,0-8,3.6-8,8v96C312,148.4,315.6,152,320,152z
	 M328,136v-16h24c2.1,0,4.2-0.8,5.7-2.3L384,91.3l26.3,26.3c1.5,1.5,3.5,2.3,5.7,2.3h40v16H328z M456,56v48h-36.7l-29.7-29.7
	c-3.1-3.1-8.2-3.1-11.3,0L348.7,104H328V56H456z"/>
<path class="st0" d="M312,200h16v16h-16V200z"/>
<path class="st0" d="M344,200h16v16h-16V200z"/>
<path class="st0" d="M456,200h16v16h-16V200z"/>
</svg>
