<?xml version="1.0" encoding="utf-8"?>
<!-- Generator: Adobe Illustrator 25.3.1, SVG Export Plug-In . SVG Version: 6.00 Build 0)  -->
<svg version="1.1" id="Layer_3" xmlns="http://www.w3.org/2000/svg" xmlns:xlink="http://www.w3.org/1999/xlink" x="0px" y="0px"
	 viewBox="0 0 512 512" style="enable-background:new 0 0 512 512;" xml:space="preserve">
<style type="text/css">
	.st0{fill:#00ACD8;}
</style>
<path class="st0" d="M496,72h-24v-8c0-13.2-10.8-24-24-24h-48c-13.2,0-24,10.8-24,24v8h-32V48c0-22.1-17.9-40-40-40h-96
	c-22.1,0-40,17.9-40,40v24h-32v-8c0-13.2-10.8-24-24-24H64c-13.2,0-24,10.8-24,24v8H16c-4.4,0-8,3.6-8,8v288c0,4.4,3.6,8,8,8h330.3
	l-3.3,5.3c-9.8,16-15,34.3-15,53.1c0,15.8,5.4,31.2,15.2,43.5c13.3,16.6,33.1,26.1,54.4,26.1h4.8c21.3,0,41.1-9.5,54.4-26.1
	c9.8-12.3,15.3-27.7,15.3-43.5c0-18.7-5.2-37.1-15-53.1l-3.3-5.3H496c4.4,0,8-3.6,8-8V80C504,75.6,500.4,72,496,72L496,72z M392,64
	c0-4.4,3.6-8,8-8h48c4.4,0,8,3.6,8,8v8h-64V64z M184,48c0-13.2,10.8-24,24-24h96c13.2,0,24,10.8,24,24v24h-16V48c0-4.4-3.6-8-8-8
	h-96c-4.4,0-8,3.6-8,8v24h-16V48z M296,72h-80V56h80V72z M56,64c0-4.4,3.6-8,8-8h48c4.4,0,8,3.6,8,8v8H56V64z M444.2,467.9
	C434,480.7,418.8,488,402.4,488h-4.8c-16.4,0-31.6-7.3-41.9-20.1h0c-7.6-9.5-11.7-21.4-11.7-33.5c0-15.8,4.4-31.2,12.6-44.7
	l43.4-70.5l43.4,70.4c8.3,13.5,12.6,28.9,12.6,44.7C456,446.5,451.8,458.4,444.2,467.9L444.2,467.9z M488,360h-44.1l-37-60.2
	c-2.9-4.7-10.7-4.7-13.6,0l-37,60.2H24V88h464L488,360z"/>
<path class="st0" d="M232,248v24c0,4.4,3.6,8,8,8h32c4.4,0,8-3.6,8-8v-24h24c4.4,0,8-3.6,8-8v-32c0-4.4-3.6-8-8-8h-24v-24
	c0-4.4-3.6-8-8-8h-32c-4.4,0-8,3.6-8,8v24h-24c-4.4,0-8,3.6-8,8v32c0,4.4,3.6,8,8,8H232z M216,216h24c4.4,0,8-3.6,8-8v-24h16v24
	c0,4.4,3.6,8,8,8h24v16h-24c-4.4,0-8,3.6-8,8v24h-16v-24c0-4.4-3.6-8-8-8h-24V216z"/>
<path class="st0" d="M256,312c48.5,0,88-39.5,88-88s-39.5-88-88-88s-88,39.5-88,88S207.5,312,256,312z M256,152
	c39.7,0,72,32.3,72,72s-32.3,72-72,72s-72-32.3-72-72S216.3,152,256,152z"/>
<path class="st0" d="M400,456v16c22.1,0,40-17.9,40-40h-16C424,445.2,413.2,456,400,456z"/>
<path class="st0" d="M288,456h-32c-4.4,0-8-3.6-8-8c0-13.2-10.8-24-24-24H64c-13.2,0-24,10.8-24,24s10.8,24,24,24h32
	c4.4,0,8,3.6,8,8c0,13.2,10.8,24,24,24h160c13.2,0,24-10.8,24-24S301.2,456,288,456z M288,488H128c-4.4,0-8-3.6-8-8
	c0-13.2-10.8-24-24-24H64c-4.4,0-8-3.6-8-8s3.6-8,8-8h160c4.4,0,8,3.6,8,8c0,13.2,10.8,24,24,24h32c4.4,0,8,3.6,8,8
	S292.4,488,288,488z"/>
<path class="st0" d="M96,392h128v16H96V392z"/>
<path class="st0" d="M64,392h16v16H64V392z"/>
</svg>
