<?xml version="1.0" encoding="utf-8"?>
<!-- Generator: Adobe Illustrator 25.3.1, SVG Export Plug-In . SVG Version: 6.00 Build 0)  -->
<svg version="1.1" id="Layer_3" xmlns="http://www.w3.org/2000/svg" xmlns:xlink="http://www.w3.org/1999/xlink" x="0px" y="0px"
	 viewBox="0 0 512 512" style="enable-background:new 0 0 512 512;" xml:space="preserve">
<style type="text/css">
	.st0{fill:#00ACD8;}
</style>
<path class="st0" d="M88,256v32c0,4.4,3.6,8,8,8h32c4.4,0,8-3.6,8-8v-32c0-4.4-3.6-8-8-8H96C91.6,248,88,251.6,88,256z M104,264h16
	v16h-16V264z"/>
<path class="st0" d="M128,312H96c-4.4,0-8,3.6-8,8v32c0,4.4,3.6,8,8,8h32c4.4,0,8-3.6,8-8v-32C136,315.6,132.4,312,128,312z
	 M120,344h-16v-16h16V344z"/>
<path class="st0" d="M128,376H96c-4.4,0-8,3.6-8,8v32c0,4.4,3.6,8,8,8h32c4.4,0,8-3.6,8-8v-32C136,379.6,132.4,376,128,376z
	 M120,408h-16v-16h16V408z"/>
<path class="st0" d="M152,264h80v16h-80V264z"/>
<path class="st0" d="M152,328h96v16h-96V328z"/>
<path class="st0" d="M152,392h120v16H152V392z"/>
<path class="st0" d="M490.3,434.3L480,444.7L443.3,408l18.3-18.3c3.1-3.1,3.1-8.2,0-11.3l-24-24c-3.1-3.1-8.2-3.1-11.3,0L416,364.7
	l-40-40V16c0-4.4-3.6-8-8-8H16c-4.4,0-8,3.6-8,8v480c0,4.4,3.6,8,8,8h352c4.4,0,8-3.6,8-8v-36.7l2.3,2.3c1.6,1.6,3.6,2.3,5.7,2.3
	s4.1-0.8,5.7-2.3l18.3-18.3l36.7,36.7l-10.3,10.3l11.3,11.3l56-56L490.3,434.3z M363.3,392l10.3-10.3l-11.3-11.3L352,380.7
	L339.3,368l10.3-10.3l-11.3-11.3L328,356.7L315.3,344l10.3-10.3l-11.3-11.3L304,332.7L291.3,320l28.7-28.7l84.7,84.7L376,404.7
	L363.3,392z M128,24h128v48H128L128,24z M120,88h144c4.4,0,8-3.6,8-8v-8h56v204.7l-2.3-2.3c-3.1-3.1-8.2-3.1-11.3,0L300,288.7
	l-38.3-38.3l-11.3,11.3l38.3,38.3l-14.3,14.3c-3.1,3.1-3.1,8.2,0,11.3l53.7,53.7V440H56V72h56v8C112,84.4,115.6,88,120,88L120,88z
	 M360,308.7l-16-16V64c0-4.4-3.6-8-8-8h-64V24h88V308.7z M360,488H24V24h88v32H48c-4.4,0-8,3.6-8,8v384c0,4.4,3.6,8,8,8h288
	c4.4,0,8-3.6,8-8v-52.7l20.7,20.7l-10.3,10.3c-3.1,3.1-3.1,8.2,0,11.3l5.7,5.7V488z M384,444.7L371.3,432l10.3-10.3l40-40l10.3-10.3
	l12.7,12.7L384,444.7z M419.3,432l12.7-12.7l36.7,36.7L456,468.7L419.3,432z"/>
<path class="st0" d="M200,232c12.7,0,24.5-6.3,31.5-16.9c5.5-8.3,8.5-18,8.5-28V186c0-7.8-1.8-15.6-5.3-22.6l-27.5-55
	c-2.7-5.4-11.6-5.4-14.3,0l-27.5,55c-3.5,7-5.3,14.8-5.3,22.6v1.1c0,10,2.9,19.7,8.5,28C175.5,225.7,187.3,232,200,232L200,232z
	 M176,186c0-5.3,1.3-10.6,3.6-15.4l20.4-40.7l20.4,40.7c2.4,4.8,3.6,10.1,3.6,15.4v1.1c0,6.8-2,13.4-5.8,19.1
	c-4.1,6.1-10.9,9.7-18.2,9.7s-14.2-3.6-18.2-9.8c-3.8-5.7-5.8-12.3-5.8-19.1V186z"/>
</svg>
