<?xml version="1.0" encoding="utf-8"?>
<!-- Generator: Adobe Illustrator 23.0.3, SVG Export Plug-In . SVG Version: 6.00 Build 0)  -->
<svg version="1.1" id="Capa_1" xmlns="http://www.w3.org/2000/svg" xmlns:xlink="http://www.w3.org/1999/xlink" x="0px" y="0px"
	 viewBox="0 0 512 512" style="enable-background:new 0 0 512 512;" xml:space="preserve">
<style type="text/css">
	.st0{fill:#D3E1F4;}
	.st1{fill:#B3CBEA;}
	.st2{fill:#EFF5F6;}
	.st3{fill:#CBE5E7;}
	.st4{fill:#FB4A59;}
	.st5{fill:#F82F40;}
	.st6{fill:#31A7FB;}
	.st7{fill:#1C96F9;}
	.st8{fill:#F5A871;}
	.st9{fill:#E89A5E;}
	.st10{fill:#24D1F8;}
	.st11{fill:#21C1F8;}
</style>
<g>
	<g>
		<g>
			<g>
				<g>
					<path class="st0" d="M512,214.9V237H323.2v-22.1c0-13.1,9.2-24,21.5-26.5c3.3-0.7,5.6-3.6,5.6-7V152h134.6v29.4
						c0,3.3,2.3,6.3,5.6,7C502.8,191,512,201.9,512,214.9z"/>
					<path class="st0" d="M323.2,387.1H512v35.7c0,7.9-6.4,14.3-14.3,14.3H337.5c-7.9,0-14.3-6.4-14.3-14.3L323.2,387.1L323.2,387.1
						z"/>
					<path class="st1" d="M512,214.9V237h-28.9v-6c0-13.1-9.2-24-21.5-26.5c-3.3-0.7-5.6-3.6-5.6-7v-9.6c0-5.4-4.4-9.8-9.8-9.8
						h-95.8v-26h134.6v29.4c0,3.4,2.3,6.3,5.6,7C502.8,190.9,512,201.9,512,214.9z"/>
					<path class="st1" d="M483.1,387.1H512v35.7c0,7.9-6.4,14.3-14.3,14.3h-28.9c7.9,0,14.3-6.4,14.3-14.3V387.1z"/>
					<path class="st2" d="M323.2,226.7H512v43.5H323.2V226.7z"/>
					<path class="st2" d="M323.2,284.1H512v113.3H323.2V284.1z"/>
					<path class="st3" d="M512,226.7v43.5h-28.9V231c0-1.5-0.1-2.9-0.4-4.3L512,226.7L512,226.7z"/>
					<path class="st3" d="M483.1,284.1H512v113.3h-28.9V284.1z"/>
					<g>
						<path class="st4" d="M323.2,259.9H512v34.6H323.2V259.9z"/>
						<path class="st5" d="M483.1,259.9H512v34.6h-28.9V259.9z"/>
					</g>
					<path class="st2" d="M492.2,157.7H343c-4,0-7.2-3.2-7.2-7.2v-47h163.6v47C499.4,154.4,496.2,157.7,492.2,157.7L492.2,157.7z"/>
					<path class="st3" d="M335.8,103.5v24.9H460c5.8,0,10.5,4.7,10.5,10.5v11.5c0,4-3.2,7.2-7.2,7.2h28.9c4,0,7.2-3.2,7.2-7.2v-47
						L335.8,103.5z"/>
					<path class="st4" d="M499.5,108.7H335.7c-4,0-7.2-3.2-7.2-7.2V82c0-4,3.2-7.2,7.2-7.2h163.8c4,0,7.2,3.2,7.2,7.2v19.5
						C506.6,105.5,503.4,108.7,499.5,108.7z"/>
					<path class="st5" d="M506.6,82v19.5c0,4-3.2,7.2-7.2,7.2h-28.9c4,0,7.2-3.2,7.2-7.2V82c0-4-3.2-7.2-7.2-7.2h28.9
						C503.4,74.9,506.6,78.1,506.6,82z"/>
				</g>
			</g>
		</g>
		<path class="st6" d="M367.9,303.8l-76.2-76.2c-7.4-7.4-20-2.2-20,8.3v10.7c0,5.7-4.6,10.3-10.3,10.3h-82.9v110.4h82.9
			c5.7,0,10.3,4.6,10.3,10.3v10.7c0,10.4,12.6,15.7,20,8.3l76.2-76.2C372.5,315.8,372.5,308.4,367.9,303.8L367.9,303.8z"/>
		<path class="st7" d="M367.9,320.3l-76.2,76.2c-7.4,7.4-20,2.2-20-8.3V381l60.7-60.7c4.6-4.6,4.6-12,0-16.6l-60.7-60.7v-7.3
			c0-10.4,12.6-15.7,20-8.3l76.2,76.2C372.5,308.3,372.5,315.8,367.9,320.3z"/>
		<g>
			<g>
				<path class="st8" d="M188.8,214.9V237H0v-22.1c0-13.1,9.2-24,21.5-26.5c3.3-0.7,5.6-3.6,5.6-7V152h134.6v29.4
					c0,3.3,2.3,6.3,5.6,7C179.6,191,188.8,201.9,188.8,214.9z"/>
				<path class="st8" d="M0,387.1h188.8v35.7c0,7.9-6.4,14.3-14.3,14.3H14.3c-7.9,0-14.3-6.4-14.3-14.3L0,387.1z"/>
				<path class="st9" d="M188.8,214.9V237h-28.9v-6c0-13.1-9.2-24-21.5-26.5c-3.3-0.7-5.6-3.6-5.6-7v-9.6c0-5.4-4.4-9.8-9.8-9.8
					H27.1v-26h134.6v29.4c0,3.4,2.3,6.3,5.6,7C179.6,190.9,188.8,201.9,188.8,214.9z"/>
				<path class="st9" d="M159.9,387.1h28.9v35.7c0,7.9-6.4,14.3-14.3,14.3h-28.9c7.9,0,14.3-6.4,14.3-14.3L159.9,387.1z"/>
				<path class="st2" d="M188.8,226.7v170.7H0V226.7h47v122.1h14V226.7H188.8z"/>
				<path class="st3" d="M188.8,226.7v170.7h-28.9V231c0-1.5-0.1-2.9-0.3-4.3L188.8,226.7z"/>
				<path class="st2" d="M169,157.7H19.8c-4,0-7.2-3.2-7.2-7.2v-47h163.6v47C176.2,154.4,173,157.7,169,157.7L169,157.7z"/>
				<path class="st3" d="M12.6,103.5v24.9h124.2c5.8,0,10.5,4.7,10.5,10.5v11.5c0,4-3.2,7.2-7.2,7.2h28.9c4,0,7.2-3.2,7.2-7.2v-47
					L12.6,103.5z"/>
				<path class="st10" d="M176.3,108.7H12.5c-4,0-7.2-3.2-7.2-7.2V82c0-4,3.2-7.2,7.2-7.2h163.8c4,0,7.2,3.2,7.2,7.2v19.5
					C183.5,105.5,180.2,108.7,176.3,108.7z"/>
				<path class="st11" d="M183.5,82v19.5c0,4-3.2,7.2-7.2,7.2h-28.9c4,0,7.2-3.2,7.2-7.2V82c0-4-3.2-7.2-7.2-7.2h28.9
					C180.2,74.9,183.5,78.1,183.5,82z"/>
			</g>
		</g>
		<g>
			<path class="st10" d="M66,359.1H42c-2.9,0-5.3-2.4-5.3-5.3V226.7h34.6v127.2C71.3,356.8,68.9,359.1,66,359.1z"/>
		</g>
	</g>
</g>
</svg>
